{
  "files": {
    "main.css": "/static/css/main.8bea1756.chunk.css",
    "main.js": "/static/js/main.745c5e65.chunk.js",
    "main.js.map": "/static/js/main.745c5e65.chunk.js.map",
    "runtime-main.js": "/static/js/runtime-main.70ddf0e8.js",
    "runtime-main.js.map": "/static/js/runtime-main.70ddf0e8.js.map",
    "static/css/2.6dd9a01f.chunk.css": "/static/css/2.6dd9a01f.chunk.css",
    "static/js/2.fa53b3ef.chunk.js": "/static/js/2.fa53b3ef.chunk.js",
    "static/js/2.fa53b3ef.chunk.js.map": "/static/js/2.fa53b3ef.chunk.js.map",
    "index.html": "/index.html",
    "precache-manifest.34dc01971a9b044f1c6c188d7ef3321c.js": "/precache-manifest.34dc01971a9b044f1c6c188d7ef3321c.js",
    "service-worker.js": "/service-worker.js",
    "static/css/2.6dd9a01f.chunk.css.map": "/static/css/2.6dd9a01f.chunk.css.map",
    "static/css/main.8bea1756.chunk.css.map": "/static/css/main.8bea1756.chunk.css.map",
    "static/js/2.fa53b3ef.chunk.js.LICENSE.txt": "/static/js/2.fa53b3ef.chunk.js.LICENSE.txt",
    "static/media/MOD.png": "/static/media/MOD.6475dc8a.png",
    "static/media/Mantak.png": "/static/media/Mantak.fbcdf2f7.png",
    "static/media/index.css": "/static/media/Rubik-Light.7a06846b.ttf",
    "static/media/cancel.svg": "/static/media/cancel.2ef2d8b4.svg",
    "static/media/check.svg": "/static/media/check.a775c5da.svg",
    "static/media/all.css": "/static/media/fa-solid-900.ec763292.svg",
    "static/media/lindao.png": "/static/media/lindao.1ae0f83a.png",
    "static/media/logo.png": "/static/media/logo.33ca7b21.png",
    "static/media/mafat.png": "/static/media/mafat.be73bc34.png",
    "static/media/more.png": "/static/media/more.15ad7453.png",
    "static/media/plus.svg": "/static/media/plus.07160d2c.svg",
    "static/media/rapat.png": "/static/media/rapat.30bb5f58.png",
    "static/media/trash.png": "/static/media/trash.9930d46d.png"
  },
  "entrypoints": [
    "static/js/runtime-main.70ddf0e8.js",
    "static/css/2.6dd9a01f.chunk.css",
    "static/js/2.fa53b3ef.chunk.js",
    "static/css/main.8bea1756.chunk.css",
    "static/js/main.745c5e65.chunk.js"
  ]
}